[
  {
    "id": "1",
    "name": "Customer",
    "description": "Client who requests for work"
  },
  {
    "id": "2",
    "name": "Writer",
    "description": "Writer of essays"
  },
  {
    "id": "3",
    "name": "Admin",
    "description": "System Admin"
  },
  {
    "id": "4",
    "name": "Support",
    "description": "System customer support"
  }
]