[
  {
    "id": "1",
    "review": "Great Assistance. The support team constantly updated me on the paper’s progress. I would recommend the site",
    "topic": "MLA"
  },
  {
    "id": "2",
    "review": "Am so grateful for this site. I got an A in my economics class, thanks to this team. You are the best. ",
    "topic": "MLA"
  },
  {
    "id": "3",
    "review": "Perfect customer response. I had to bring my deadline closer, and the team worked it out well enough. I will be using your help again, guys. ",
    "topic": "MLA"
  },
  {
    "id": "4",
    "review": "Definitely worth the money. Thank yiu Essay energy. ",
    "topic": "MLA"
  },
  {
    "id": "5",
    "review": "I had to rush my daughter to hospital with an assignment due. Essay energy was helpful and helped me get an A in my paper. Thank you, guys. ",
    "topic": "MLA"
  },
  {
    "id": "6",
    "review": "Its difficult completing English assignments as an ESL. Thank you for matching the expected standards. ",
    "topic": "MLA"
  },
  {
    "id": "7",
    "review": "I am using your help again. I would not have written my term paper as well as you guys did. ",
    "topic": "MLA"
  },
  {
    "id": "8",
    "review": "I most of all appreciate the speed with which the team responded to my issues in the tracking process. Thank you for delivering to my expectations.",
    "topic": "MLA"
  },
  {
    "id": "9",
    "review": "I recommend essay energy for the perfect score on my paper. Thank you. ",
    "topic": "MLA"
  },
  {
    "id": "10",
    "review": "Second time using the site and received perfect grades in my papers. I am using you next semester. ",
    "topic": "MLA"
  },
  {
    "id": "11",
    "review": "Thank you for the constant feedback. Great communication.",
    "topic": "MLA"
  },
  {
    "id": "12",
    "review": "The best management papers help I have received. Always performs.",
    "topic": "MLA"
  },
  {
    "id": "13",
    "review": "Met expectations. I will use your help again.",
    "topic": "MLA"
  },
  {
    "id": "14",
    "review": "I recommend this site. Excellent communication. Met my expectations.",
    "topic": "MLA"
  },
  {
    "id": "15",
    "review": "Great support team. Thank you for constant feedback.",
    "topic": "MLA"
  }
]